<define-tag pagetitle>DLA-2938-1 twisted</define-tag>
<define-tag report_date>2022-03-08</define-tag>
<define-tag secrefs>CVE-2022-21716</define-tag>
<define-tag packages>twisted</define-tag>
<define-tag isvulnerable>yes</define-tag>
<define-tag fixed>yes</define-tag>
<define-tag fixed-section>no</define-tag>

#use wml::debian::security
