<define-tag pagetitle>DSA-4925-1 firefox-esr</define-tag>
<define-tag report_date>2021-6-02</define-tag>
<define-tag secrefs>CVE-2021-29967</define-tag>
<define-tag packages>firefox-esr</define-tag>
<define-tag isvulnerable>yes</define-tag>
<define-tag fixed>yes</define-tag>
<define-tag fixed-section>no</define-tag>

#use wml::debian::security



</dl>
