<define-tag pagetitle>DLA-2461-1 zabbix</define-tag>
<define-tag report_date>2020-11-21</define-tag>
<define-tag secrefs>CVE-2016-10742 CVE-2020-11800</define-tag>
<define-tag packages>zabbix</define-tag>
<define-tag isvulnerable>yes</define-tag>
<define-tag fixed>yes</define-tag>
<define-tag fixed-section>no</define-tag>

#use wml::debian::security

