<define-tag pagetitle>DLA-1616-1 libextractor</define-tag>
<define-tag report_date>2018-12-24</define-tag>
<define-tag secrefs>CVE-2018-20430 CVE-2018-20431 Bug#917214 Bug#917213</define-tag>
<define-tag packages>libextractor</define-tag>
<define-tag isvulnerable>yes</define-tag>
<define-tag fixed>yes</define-tag>
<define-tag fixed-section>no</define-tag>

#use wml::debian::security

