<define-tag pagetitle>DSA-4375-1 spice</define-tag>
<define-tag report_date>2019-1-29</define-tag>
<define-tag secrefs>CVE-2019-3813 Bug#920762</define-tag>
<define-tag packages>spice</define-tag>
<define-tag isvulnerable>yes</define-tag>
<define-tag fixed>yes</define-tag>
<define-tag fixed-section>no</define-tag>

#use wml::debian::security



</dl>
