<define-tag pagetitle>DLA-561-1 uclibc</define-tag>
<define-tag report_date>2016-7-26</define-tag>
<define-tag secrefs>CVE-2016-2224 CVE-2016-2225 CVE-2016-6264</define-tag>
<define-tag packages>uclibc</define-tag>
<define-tag isvulnerable>yes</define-tag>
<define-tag fixed>yes</define-tag>
<define-tag fixed-section>no</define-tag>

#use wml::debian::security

